…
``` r
library(dplyr)

president_speech %>%
  select(title, doc) %>% 
  filter(row_number() <= 2) %>%
  unnest_noun_ngrams(
    noun_bigram,
    doc,
    n = 2,
    ngram_delim = ":",
    type = "noun2"
  )
#> # A tibble: 264 × 2
#>    title                              noun_bigram
#>    <chr>                              <chr>      
#>  1 "2005 한일 우정의 해 개막식 축사 " 일:우정    
#>  2 "2005 한일 우정의 해 개막식 축사 " 우정:해    
#>  3 "2005 한일 우정의 해 개막식 축사 " 해:개막식  
#>  4 "2005 한일 우정의 해 개막식 축사 " 개막식:축하
#>  5 "2005 한일 우정의 해 개막식 축사 " 축하:행사  
#>  6 "2005 한일 우정의 해 개막식 축사 " 행사:축하  
#>  7 "2005 한일 우정의 해 개막식 축사 " 축하:참석  
#>  8 "2005 한일 우정의 해 개막식 축사 " 참석:여러분
#>  9 "2005 한일 우정의 해 개막식 축사 " 여러분:모두
#> 10 "2005 한일 우정의 해 개막식 축사 " 모두:환영  
#> # ℹ 254 more rows
```
…
tidytext 패키지를 이용해서 텍스트 데이터 분석을 수행한다면, 문자 벡터의
필터링이 아니라 문자 변수를 이용한 필터링을 수행해야 합니다.

다음처럼 `as_logical` 인수의 기본값인 TRUE를 사용합니다. 이 경우는
`CONTENT` 변수의 모든 원소에 대해서 allow 필터링 여부를 의미하는 논리
벡터를 만들어 반환합니다. 그러므로 `dplyr` 패키지의 `filter` 함수와
사용하여 필터링합니다.

``` r
library(dplyr)

buzz %>% 
  filter(filter_text(CONTENT, verbos = FALSE)) %>% 
  select(KEYWORD, SRC, CONTENT)
#> # A tibble: 985 × 3
#>    KEYWORD SRC              CONTENT                                             
#>    <chr>   <chr>            <chr>                                               
#>  1 맞벌이  17,18년 베이비맘 "지금 둘째 임신중인 어머니예요 첫째는 16년 1월생 둘째출산예정은 17년 3월생 어쩌다 보…
#>  2 맞벌이  20대 수다방      "저희 부부는 맞벌이인데요 남편 회사 사람들도 거의 다 맞벌이인가봐요 그래도 아침마다 아내분…
#>  3 맞벌이  20대 수다방      "신랑지출 제지출 구분해서 따로적으시나요 제가쓴돈은 알아도 신랑이쓴돈은 잘몰라 어떻게 적어야…
#>  4 맞벌이  20대 수다방      "너무 고민이 되서 하소연 할때 없어서 여기서 하소연 해봐요 글이좀 길수가 있어요 양해 부탁…
#>  5 맞벌이  20대 수다방      "\"이제 벌써 결혼 1년차 가까이 되어가는 동갑내기신혼부부입니다 허허다름이 아니라 얼마전 …
#>  6 맞벌이  20대 수다방      "자가는 아니고 신랑 직장때문에 집 팔고 세들어 살고 있는데요1층이라서 좋을줄만 알았는데 위…
#>  7 맞벌이  20대 수다방      "계획했던 임신이 아니라서 급하게 맞벌이 (주말부부)접고 군인신랑따라 철원가려구요 돈 직장보…
#>  8 맞벌이  20대 수다방      "못가지니까 기분이 안좋아요 다른것도아니고 여유가 안되서 못갖는다는게첫째낳고친정부모님들은 맞…
#>  9 맞벌이  20대 수다방      "남편이랑 저랑 동갑에 둘 다 맞벌이에요. 저는 현재 임신 8주구요. 제가 요리를 넘넘 못해…
#> 10 맞벌이  20대 수다방      "요즘 퇴근하고 남편이 데리러 오는데요 살빼려고 하는데 맨날 저녁 먹고 들어가서점점찌고 있습…
#> # ℹ 975 more rows
```
…
