Collaboration with tidytext package
…
library(bitNLP)
library(tidyverse)
library(tidytext)

nho_noun_indiv <- president_speech %>%
  filter(president %in% "노무현") %>%
  filter(str_detect(category, "^외교")) %>%
  tidytext::unnest_tokens(
    out = "speech_noun",
    input = "doc",
    token = morpho_mecab
  )
  
 nho_noun_indiv 
# A tibble: 44,316 × 7
  id       president category  type  title                         date  speec…¹
  <chr>    <chr>     <chr>     <chr> <chr>                         <chr> <chr>  
1 DOC_0001 노무현    외교-통상 치사  "2005 한일 우정의 해 개막식 … 2005… 우정   
2 DOC_0001 노무현    외교-통상 치사  "2005 한일 우정의 해 개막식 … 2005… 해     
3 DOC_0001 노무현    외교-통상 치사  "2005 한일 우정의 해 개막식 … 2005… 개막식 
4 DOC_0001 노무현    외교-통상 치사  "2005 한일 우정의 해 개막식 … 2005… 축하   
# … with 44,312 more rows, and abbreviated variable name ¹​speech_noun
…
한글 텍스트 데이터에서 일반명사를 추출한 후 이것을
tidy한 데이터로 만들기 위해서는 tidytext의
unnest_tokens() 함수에 토크나이저로 bitNLP의
morpho_mecab()를 사용합니다. 원하는 모습의
tidy 데이터가 만들어진 것입니닫.

poem %>% 
  unnest_tokens(
    명사,
    내용,
    token = morpho_mecab
  )
# A tibble: 8 × 3
     연    행 명사 
  <dbl> <int> <chr>
1     1     1 님   
2     1     1 사랑 
3     1     1 님   
4     1     2 산   
# … with 4 more rows
…
다음은 대통령 연설문의 명사 bi-grams를 추출하여,
noun_bigram 변수에 개별 토큰을 넣습니다.

president_speech %>%
  select(title, doc) %>% 
  filter(row_number() <= 2) %>%
  unnest_noun_ngrams(
    noun_bigram,
    doc,
    n = 2,
    ngram_delim = ":",
    type = "noun2"
  )
# A tibble: 264 × 2
  title                              noun_bigram
  <chr>                              <chr>      
1 "2005 한일 우정의 해 개막식 축사 " 일:우정    
2 "2005 한일 우정의 해 개막식 축사 " 우정:해    
3 "2005 한일 우정의 해 개막식 축사 " 해:개막식  
4 "2005 한일 우정의 해 개막식 축사 " 개막식:축하
# … with 260 more rows
…
president_speech %>%
  select(title, doc) %>% 
  filter(row_number() <= 2) %>%
  unnest_noun_ngrams(
    noun_bigram,
    doc,
    n = 2,
    ngram_delim = ":",
    drop = FALSE
  )   
# A tibble: 209 × 3
  title                              doc                                noun_b…¹
  <chr>                              <chr>                              <chr>   
1 "2005 한일 우정의 해 개막식 축사 " "  먼저 한,일 우정의 해 개막식을 … 우정:해 
2 "2005 한일 우정의 해 개막식 축사 " "  먼저 한,일 우정의 해 개막식을 … 해:개막…
3 "2005 한일 우정의 해 개막식 축사 " "  먼저 한,일 우정의 해 개막식을 … 개막식:…
4 "2005 한일 우정의 해 개막식 축사 " "  먼저 한,일 우정의 해 개막식을 … 축하:행…
# … with 205 more rows, and abbreviated variable name ¹​noun_bigram
…
# grouping using group_by() function
president_speech %>%
  filter(row_number() <= 4) %>%
  mutate(speech_year = substr(date, 1, 4)) %>% 
  select(speech_year, title, doc) %>% 
  group_by(speech_year) %>%
  unnest_noun_ngrams(
    noun_bigram,
    doc,
    n = 2,
    ngram_delim = ":"
  )
# A tibble: 1,759 × 2
# Groups:   speech_year [2]
  speech_year noun_bigram
  <chr>       <chr>      
1 2005        우정:해    
2 2005        해:개막식  
3 2005        개막식:축하
4 2005        축하:행사  
# … with 1,755 more rows
…
# grouping using collapse argument
president_speech %>%
  filter(row_number() <= 4) %>%
  mutate(speech_year = substr(date, 1, 4)) %>% 
  select(speech_year, title, doc) %>% 
  unnest_noun_ngrams(
    noun_bigram,
    doc,
    n = 2,
    ngram_delim = ":",
    collapse = "speech_year"
  )
# A tibble: 1,759 × 2
  speech_year noun_bigram
  <chr>       <chr>      
1 2005        우정:해    
2 2005        해:개막식  
3 2005        개막식:축하
4 2005        축하:행사  
# … with 1,755 more rows
…
