Tools for NLP and Text Analytics • bitNLP
…
bitNLP의 한글 unnest_tokens에는 명사 n-grams 토크나이즈를 지원하는 unnest_noun_ngrams() 함수가 있습니다. 이 함수는 tidytext 패키지의 unnest_tokens 함수군의 사용법과 거의 동일합니다.

library(dplyr)

president_speech %>%
  select(title, doc) %>% 
  filter(row_number() <= 2) %>%
  unnest_noun_ngrams(
    noun_bigram,
    doc,
    n = 2,
    ngram_delim = ":",
    type = "noun2"
  )
#> # A tibble: 264 × 2
#>    title                              noun_bigram
#>    <chr>                              <chr>      
#>  1 "2005 한일 우정의 해 개막식 축사 " 일:우정    
#>  2 "2005 한일 우정의 해 개막식 축사 " 우정:해    
#>  3 "2005 한일 우정의 해 개막식 축사 " 해:개막식  
#>  4 "2005 한일 우정의 해 개막식 축사 " 개막식:축하
#>  5 "2005 한일 우정의 해 개막식 축사 " 축하:행사  
#>  6 "2005 한일 우정의 해 개막식 축사 " 행사:축하  
#>  7 "2005 한일 우정의 해 개막식 축사 " 축하:참석  
#>  8 "2005 한일 우정의 해 개막식 축사 " 참석:여러분
#>  9 "2005 한일 우정의 해 개막식 축사 " 여러분:모두
#> 10 "2005 한일 우정의 해 개막식 축사 " 모두:환영  
#> # … with 254 more rows
…
5개의 결측치와 6개의 룰에서 10개의 문서가 제거되어서 길이가 985인 문자 벡터가 만들어졌습니다.

데이터 프레임의 필터링

tidytext 패키지를 이용해서 텍스트 데이터 분석을 수행한다면, 문자 벡터의 필터링이 아니라 문자 변수를 이용한 필터링을 수행해야 합니다.

다음처럼 as_logical 인수의 기본값인 TRUE를 사용합니다. 이 경우는 CONTENT 변수의 모든 원소에 대해서 allow 필터링 여부를 의미하는 논리 벡터를 만들어 반환합니다. 그러므로 dplyr 패키지의 filter 함수와 사용하여 필터링합니다.

library(dplyr)

buzz %>% 
  filter(filter_text(CONTENT, verbos = FALSE)) %>% 
  select(KEYWORD, SRC, CONTENT)
#> # A tibble: 985 × 3
#>    KEYWORD SRC              CONTENT                                             
#>    <chr>   <chr>            <chr>                                               
#>  1 맞벌이  17,18년 베이비맘 "지금 둘째 임신중인 어머니예요 첫째는 16년 1월생 둘…
#>  2 맞벌이  20대 수다방      "저희 부부는 맞벌이인데요 남편 회사 사람들도 거의 … 
#>  3 맞벌이  20대 수다방      "신랑지출 제지출 구분해서 따로적으시나요 제가쓴돈은…
#>  4 맞벌이  20대 수다방      "너무 고민이 되서 하소연 할때 없어서 여기서 하소연 …
#>  5 맞벌이  20대 수다방      "\"이제 벌써 결혼 1년차 가까이 되어가는 동갑내기신… 
#>  6 맞벌이  20대 수다방      "자가는 아니고 신랑 직장때문에 집 팔고 세들어 살고 …
#>  7 맞벌이  20대 수다방      "계획했던 임신이 아니라서 급하게 맞벌이 (주말부부)… 
#>  8 맞벌이  20대 수다방      "못가지니까 기분이 안좋아요 다른것도아니고 여유가 … 
#>  9 맞벌이  20대 수다방      "남편이랑 저랑 동갑에 둘 다 맞벌이에요. 저는 현재 … 
#> 10 맞벌이  20대 수다방      "요즘 퇴근하고 남편이 데리러 오는데요 살빼려고 하는…
#> # … with 975 more rows
…
