Filter data based on string matches of text data — filter_text • bitNLP
…
# 필터링 전/후 비교
NROW(doc_content)
#> [1] 1000
sum(doc_after_logical)
#> [1] 985
NROW(doc_after_character)
#> [1] 985

# tidyverse(혹은 tidytext)와의 협업
library(dplyr)
buzz %>% 
  filter(filter_text(CONTENT, verbos = FALSE)) %>% 
  select(KEYWORD, SRC, CONTENT)
#> # A tibble: 985 × 3
#>    KEYWORD SRC              CONTENT                                             
#>    <chr>   <chr>            <chr>                                               
#>  1 맞벌이  17,18년 베이비맘 "지금 둘째 임신중인 어머니예요 첫째는 16년 1월생 둘…
#>  2 맞벌이  20대 수다방      "저희 부부는 맞벌이인데요 남편 회사 사람들도 거의 … 
#>  3 맞벌이  20대 수다방      "신랑지출 제지출 구분해서 따로적으시나요 제가쓴돈은…
#>  4 맞벌이  20대 수다방      "너무 고민이 되서 하소연 할때 없어서 여기서 하소연 …
#>  5 맞벌이  20대 수다방      "\"이제 벌써 결혼 1년차 가까이 되어가는 동갑내기신… 
#>  6 맞벌이  20대 수다방      "자가는 아니고 신랑 직장때문에 집 팔고 세들어 살고 …
#>  7 맞벌이  20대 수다방      "계획했던 임신이 아니라서 급하게 맞벌이 (주말부부)… 
#>  8 맞벌이  20대 수다방      "못가지니까 기분이 안좋아요 다른것도아니고 여유가 … 
#>  9 맞벌이  20대 수다방      "남편이랑 저랑 동갑에 둘 다 맞벌이에요. 저는 현재 … 
#> 10 맞벌이  20대 수다방      "요즘 퇴근하고 남편이 데리러 오는데요 살빼려고 하는…
#> # … with 975 more rows
…
