part-of-speech tagger based on mecab-ko morphology analyzer — morpho_mecab • bitNLP
…
# Using morpho_mecab with tidytext package
library(dplyr)

nho_noun_indiv <- president_speech %>%
  filter(president %in% "노무현") %>%
  filter(stringr::str_detect(category, "^외교")) %>%
  tidytext::unnest_tokens(
    out = "speech_noun",
    input = "doc",
    token = morpho_mecab
  )
  
 nho_noun_indiv 
#> # A tibble: 44,316 × 7
#>    id       president category  type  title                    date  speech_noun
#>    <chr>    <chr>     <chr>     <chr> <chr>                    <chr> <chr>      
#>  1 DOC_0001 노무현    외교-통상 치사  "2005 한일 우정의 해 개막식 축사 "… 2005… 우정       
#>  2 DOC_0001 노무현    외교-통상 치사  "2005 한일 우정의 해 개막식 축사 "… 2005… 해         
#>  3 DOC_0001 노무현    외교-통상 치사  "2005 한일 우정의 해 개막식 축사 "… 2005… 개막식     
#>  4 DOC_0001 노무현    외교-통상 치사  "2005 한일 우정의 해 개막식 축사 "… 2005… 축하       
#>  5 DOC_0001 노무현    외교-통상 치사  "2005 한일 우정의 해 개막식 축사 "… 2005… 행사       
#>  6 DOC_0001 노무현    외교-통상 치사  "2005 한일 우정의 해 개막식 축사 "… 2005… 축하       
#>  7 DOC_0001 노무현    외교-통상 치사  "2005 한일 우정의 해 개막식 축사 "… 2005… 참석       
#>  8 DOC_0001 노무현    외교-통상 치사  "2005 한일 우정의 해 개막식 축사 "… 2005… 모두       
#>  9 DOC_0001 노무현    외교-통상 치사  "2005 한일 우정의 해 개막식 축사 "… 2005… 환영       
#> 10 DOC_0001 노무현    외교-통상 치사  "2005 한일 우정의 해 개막식 축사 "… 2005… 감사       
#> # ℹ 44,306 more rows
…
