Extract Collapsed Noun — collapse_noun • bitNLP
…
nho_noun <- president_speech %>%
  filter(president %in% "노무현") %>%
  filter(stringr::str_detect(category, "^외교")) %>%
  mutate(doc_noun = collapse_noun(doc)) %>%
    tidytext::unnest_ngrams(
      noun_bigram,
      doc_noun,
      n = 2
   )
nho_noun
#> # A tibble: 44,117 × 8
#>    id       president category  type  title              date  doc   noun_bigram
#>    <chr>    <chr>     <chr>     <chr> <chr>              <chr> <chr> <chr>      
#>  1 DOC_0001 노무현    외교-통상 치사  "2005 한일 우정의 해 개막… 2005… "  먼… 우정 해    
#>  2 DOC_0001 노무현    외교-통상 치사  "2005 한일 우정의 해 개막… 2005… "  먼… 해 개막식  
#>  3 DOC_0001 노무현    외교-통상 치사  "2005 한일 우정의 해 개막… 2005… "  먼… 개막식 축하
#>  4 DOC_0001 노무현    외교-통상 치사  "2005 한일 우정의 해 개막… 2005… "  먼… 축하 행사  
#>  5 DOC_0001 노무현    외교-통상 치사  "2005 한일 우정의 해 개막… 2005… "  먼… 행사 축하  
#>  6 DOC_0001 노무현    외교-통상 치사  "2005 한일 우정의 해 개막… 2005… "  먼… 축하 참석  
#>  7 DOC_0001 노무현    외교-통상 치사  "2005 한일 우정의 해 개막… 2005… "  먼… 참석 모두  
#>  8 DOC_0001 노무현    외교-통상 치사  "2005 한일 우정의 해 개막… 2005… "  먼… 모두 환영  
#>  9 DOC_0001 노무현    외교-통상 치사  "2005 한일 우정의 해 개막… 2005… "  먼… 환영 감사  
#> 10 DOC_0001 노무현    외교-통상 치사  "2005 한일 우정의 해 개막… 2005… "  먼… 감사 인사  
#> # ℹ 44,107 more rows
…
