Wrapper around unnest_tokens for n-grams of noun — unnest_noun_ngrams • bitNLP
…
# \donttest{
library(dplyr)

president_speech %>%
  select(title, doc) %>% 
  filter(row_number() <= 2) %>%
  unnest_noun_ngrams(
    noun_bigram,
    doc,
    n = 2,
    ngram_delim = ":",
    type = "noun2"
  )
#> # A tibble: 264 × 2
#>    title                              noun_bigram
#>    <chr>                              <chr>      
#>  1 "2005 한일 우정의 해 개막식 축사 " 일:우정    
#>  2 "2005 한일 우정의 해 개막식 축사 " 우정:해    
#>  3 "2005 한일 우정의 해 개막식 축사 " 해:개막식  
#>  4 "2005 한일 우정의 해 개막식 축사 " 개막식:축하
#>  5 "2005 한일 우정의 해 개막식 축사 " 축하:행사  
#>  6 "2005 한일 우정의 해 개막식 축사 " 행사:축하  
#>  7 "2005 한일 우정의 해 개막식 축사 " 축하:참석  
#>  8 "2005 한일 우정의 해 개막식 축사 " 참석:여러분
#>  9 "2005 한일 우정의 해 개막식 축사 " 여러분:모두
#> 10 "2005 한일 우정의 해 개막식 축사 " 모두:환영  
#> # ℹ 254 more rows
  
president_speech %>%
  select(title, doc) %>% 
  filter(row_number() <= 2) %>%
  unnest_noun_ngrams(
    noun_bigram,
    doc,
    n = 2,
    ngram_delim = ":",
    drop = FALSE
  )   
#> # A tibble: 209 × 3
#>    title                              doc                            noun_bigram
#>    <chr>                              <chr>                          <chr>      
#>  1 "2005 한일 우정의 해 개막식 축사 " "  먼저 한,일 우정의 해 개막식을 축하합니다. 이… 우정:해    
#>  2 "2005 한일 우정의 해 개막식 축사 " "  먼저 한,일 우정의 해 개막식을 축하합니다. 이… 해:개막식  
#>  3 "2005 한일 우정의 해 개막식 축사 " "  먼저 한,일 우정의 해 개막식을 축하합니다. 이… 개막식:축하
#>  4 "2005 한일 우정의 해 개막식 축사 " "  먼저 한,일 우정의 해 개막식을 축하합니다. 이… 축하:행사  
#>  5 "2005 한일 우정의 해 개막식 축사 " "  먼저 한,일 우정의 해 개막식을 축하합니다. 이… 행사:축하  
#>  6 "2005 한일 우정의 해 개막식 축사 " "  먼저 한,일 우정의 해 개막식을 축하합니다. 이… 축하:참석  
#>  7 "2005 한일 우정의 해 개막식 축사 " "  먼저 한,일 우정의 해 개막식을 축하합니다. 이… 참석:모두  
#>  8 "2005 한일 우정의 해 개막식 축사 " "  먼저 한,일 우정의 해 개막식을 축하합니다. 이… 모두:환영  
#>  9 "2005 한일 우정의 해 개막식 축사 " "  먼저 한,일 우정의 해 개막식을 축하합니다. 이… 환영:감사  
#> 10 "2005 한일 우정의 해 개막식 축사 " "  먼저 한,일 우정의 해 개막식을 축하합니다. 이… 감사:인사  
#> # ℹ 199 more rows
 
# grouping using group_by() function
president_speech %>%
  filter(row_number() <= 4) %>%
  mutate(speech_year = substr(date, 1, 4)) %>% 
  select(speech_year, title, doc) %>% 
  group_by(speech_year) %>%
  unnest_noun_ngrams(
    noun_bigram,
    doc,
    n = 2,
    ngram_delim = ":"
  )
#> # A tibble: 1,759 × 2
#> # Groups:   speech_year [2]
#>    speech_year noun_bigram
#>    <chr>       <chr>      
#>  1 2005        우정:해    
#>  2 2005        해:개막식  
#>  3 2005        개막식:축하
#>  4 2005        축하:행사  
#>  5 2005        행사:축하  
#>  6 2005        축하:참석  
#>  7 2005        참석:모두  
#>  8 2005        모두:환영  
#>  9 2005        환영:감사  
#> 10 2005        감사:인사  
#> # ℹ 1,749 more rows
  
# grouping using collapse argument
president_speech %>%
  filter(row_number() <= 4) %>%
  mutate(speech_year = substr(date, 1, 4)) %>% 
  select(speech_year, title, doc) %>% 
  unnest_noun_ngrams(
    noun_bigram,
    doc,
    n = 2,
    ngram_delim = ":",
    collapse = "speech_year"
  )
#> # A tibble: 1,759 × 2
#>    speech_year noun_bigram
#>    <chr>       <chr>      
#>  1 2005        우정:해    
#>  2 2005        해:개막식  
#>  3 2005        개막식:축하
#>  4 2005        축하:행사  
#>  5 2005        행사:축하  
#>  6 2005        축하:참석  
#>  7 2005        참석:모두  
#>  8 2005        모두:환영  
#>  9 2005        환영:감사  
#> 10 2005        감사:인사  
#> # ℹ 1,749 more rows
…
